-- Merging decision tree log ---
manifest
ADDED from /Users/mafrukhin/StudioProjects/plantation-survey-app/sweetalert/src/main/AndroidManifest.xml:1:1-9:12
INJECTED from /Users/mafrukhin/StudioProjects/plantation-survey-app/sweetalert/src/main/AndroidManifest.xml:1:1-9:12
INJECTED from /Users/mafrukhin/StudioProjects/plantation-survey-app/sweetalert/src/main/AndroidManifest.xml:1:1-9:12
	package
		ADDED from /Users/mafrukhin/StudioProjects/plantation-survey-app/sweetalert/src/main/AndroidManifest.xml:2:5-35
		INJECTED from /Users/mafrukhin/StudioProjects/plantation-survey-app/sweetalert/src/main/AndroidManifest.xml
		INJECTED from /Users/mafrukhin/StudioProjects/plantation-survey-app/sweetalert/src/main/AndroidManifest.xml
	android:versionName
		ADDED from /Users/mafrukhin/StudioProjects/plantation-survey-app/sweetalert/src/main/AndroidManifest.xml:4:5-32
	xmlns:android
		ADDED from /Users/mafrukhin/StudioProjects/plantation-survey-app/sweetalert/src/main/AndroidManifest.xml:1:11-69
	android:versionCode
		ADDED from /Users/mafrukhin/StudioProjects/plantation-survey-app/sweetalert/src/main/AndroidManifest.xml:3:5-29
uses-sdk
ADDED from /Users/mafrukhin/StudioProjects/plantation-survey-app/sweetalert/src/main/AndroidManifest.xml:6:5-47
INJECTED from /Users/mafrukhin/StudioProjects/plantation-survey-app/sweetalert/src/main/AndroidManifest.xml:6:5-47
INJECTED from /Users/mafrukhin/StudioProjects/plantation-survey-app/sweetalert/src/main/AndroidManifest.xml:6:5-47
INJECTED from /Users/mafrukhin/StudioProjects/plantation-survey-app/sweetalert/src/main/AndroidManifest.xml:6:5-47
INJECTED from /Users/mafrukhin/StudioProjects/plantation-survey-app/sweetalert/src/main/AndroidManifest.xml:6:5-47
	android:targetSdkVersion
		ADDED from /Users/mafrukhin/StudioProjects/plantation-survey-app/sweetalert/src/main/AndroidManifest.xml:6:15-44
		INJECTED from /Users/mafrukhin/StudioProjects/plantation-survey-app/sweetalert/src/main/AndroidManifest.xml
		INJECTED from /Users/mafrukhin/StudioProjects/plantation-survey-app/sweetalert/src/main/AndroidManifest.xml
	android:minSdkVersion
		INJECTED from /Users/mafrukhin/StudioProjects/plantation-survey-app/sweetalert/src/main/AndroidManifest.xml
		ADDED from /Users/mafrukhin/StudioProjects/plantation-survey-app/sweetalert/src/main/AndroidManifest.xml:6:5-47
		INJECTED from /Users/mafrukhin/StudioProjects/plantation-survey-app/sweetalert/src/main/AndroidManifest.xml
application
ADDED from /Users/mafrukhin/StudioProjects/plantation-survey-app/sweetalert/src/main/AndroidManifest.xml:7:5-20
